<?xml version="1.0" encoding="UTF-8"?>
<svg id="Ebene_1" data-name="Ebene 1" xmlns="http://www.w3.org/2000/svg" viewBox="0 0 255 170.89">
  <defs>
    <style>
      .cls-1 {
        fill: #fff;
      }
    </style>
  </defs>
  <polygon class="cls-1" points="59.63 0 59.63 30.1 67.24 30.1 67.24 7.61 247.39 7.61 247.39 126.85 103.05 126.85 67.24 155.17 67.24 106.71 59.63 106.71 59.63 170.89 105.7 134.46 255 134.46 255 0 59.63 0"/>
  <g>
    <path class="cls-1" d="m0,99.62v-61.85h19.03c5.44,0,10.3,1.22,14.59,3.67,4.29,2.45,7.64,5.93,10.05,10.45,2.41,4.52,3.61,9.65,3.61,15.4v2.85c0,5.75-1.18,10.86-3.55,15.34-2.36,4.48-5.7,7.94-10,10.41-4.31,2.46-9.16,3.71-14.57,3.74H0Zm12.74-51.53v41.29h6.16c4.98,0,8.79-1.63,11.43-4.88,2.63-3.26,3.98-7.92,4.04-13.98v-3.27c0-6.29-1.3-11.05-3.91-14.29-2.61-3.24-6.41-4.86-11.43-4.86h-6.29Z"/>
    <path class="cls-1" d="m70.09,99.62h-12.74v-61.85h12.74v61.85Z"/>
    <path class="cls-1" d="m94.65,77.83v21.79h-12.74v-61.85h24.13c4.64,0,8.73.85,12.26,2.55,3.53,1.7,6.24,4.11,8.13,7.24,1.9,3.13,2.85,6.69,2.85,10.68,0,6.06-2.07,10.84-6.22,14.34-4.15,3.5-9.89,5.25-17.23,5.25h-11.17Zm0-10.32h11.38c3.37,0,5.94-.79,7.71-2.38s2.66-3.85,2.66-6.8-.89-5.48-2.68-7.35c-1.78-1.87-4.25-2.83-7.39-2.89h-11.68v19.41Z"/>
    <path class="cls-1" d="m164.24,86.88h-22.34l-4.25,12.74h-13.55l23.02-61.85h11.81l23.15,61.85h-13.55l-4.29-12.74Zm-18.9-10.32h15.46l-7.77-23.15-7.69,23.15Z"/>
    <path class="cls-1" d="m219.93,83.39c0-2.41-.85-4.25-2.55-5.54-1.7-1.29-4.76-2.65-9.18-4.08-4.42-1.43-7.92-2.84-10.49-4.23-7.02-3.79-10.54-8.91-10.54-15.34,0-3.34.94-6.32,2.83-8.94,1.88-2.62,4.59-4.67,8.11-6.14,3.53-1.47,7.48-2.21,11.87-2.21s8.35.8,11.81,2.4c3.46,1.6,6.14,3.86,8.05,6.78,1.91,2.92,2.87,6.23,2.87,9.94h-12.74c0-2.83-.89-5.03-2.68-6.61-1.78-1.57-4.29-2.36-7.52-2.36s-5.54.66-7.26,1.98c-1.73,1.32-2.59,3.05-2.59,5.2,0,2.01,1.01,3.7,3.04,5.05,2.03,1.36,5.01,2.63,8.94,3.82,7.25,2.18,12.53,4.88,15.85,8.11,3.31,3.23,4.97,7.25,4.97,12.06,0,5.35-2.02,9.55-6.07,12.6-4.05,3.05-9.5,4.57-16.36,4.57-4.76,0-9.09-.87-13-2.61-3.91-1.74-6.89-4.13-8.94-7.16-2.05-3.03-3.08-6.54-3.08-10.54h12.79c0,6.83,4.08,10.24,12.23,10.24,3.03,0,5.4-.62,7.1-1.85,1.7-1.23,2.55-2.95,2.55-5.16Z"/>
  </g>
</svg>