<svg xmlns="http://www.w3.org/2000/svg" width="480.591" height="441.809" viewBox="0 0 480.591 441.809">
  <g id="Wizard_3_" data-name="Wizard 3 " transform="translate(-610.908 -920.692)">
    <path id="Differenzmenge_13" data-name="Differenzmenge 13" d="M555.9,644H348.378c-7.686-1.219-15.484-2.568-23.026-3.874l-.015,0-2.519-.436c-12.539-2.168-25.551-4.75-39.781-7.891-9.425-2.081-18.95-4.44-28.162-6.721l-.018,0c-3.968-.983-8.071-2-12.111-2.978a4.08,4.08,0,0,1-.637-.205,1.625,1.625,0,0,1-.956-.866,3.3,3.3,0,0,1,.388-2.318c3.844-8.772,7.652-17.578,10.87-25.035.262-.605.467-1.244.665-1.862.085-.265.181-.565.279-.851l.157-.25c.153-.241.316-.5.516-.822.879.227,1.761.46,2.615.685,1.86.49,3.781,1,5.682,1.452,3.3.792,6.655,1.617,9.9,2.415l.035.008.007,0c8.03,1.977,16.333,4.021,24.561,5.73,14.989,3.118,30.949,6.372,46.8,8.871,20.515,3.232,40.593,6.238,60.68,7.509l5.3.335.044,0c17.391,1.1,35.373,2.239,53.065,3.262,5.672.328,11.445.585,17.027.833h.007c9.663.429,19.655.873,29.451,1.7a318.957,318.957,0,0,1,46.708,7.113V644Zm-259.686,0H230.851c.6-1.339,1.214-2.7,1.808-4.015l0-.01c1.365-3.027,2.777-6.157,4.129-9.251.453-1.034.959-1.5,1.641-1.5a2.808,2.808,0,0,1,1.258.381c5.182,2.692,10.886,3.932,16.4,5.131,2.052.446,4.17.906,6.231,1.434,1.761.451,3.531.973,5.243,1.478,2.167.639,4.407,1.3,6.64,1.82,3.3.767,6.678,1.423,9.947,2.058,1.677.325,3.577.694,5.389,1.067,2.229.458,4.487.937,6.671,1.4Zm-75.138,0H163.371l-14.8-6.278-.377-.16-.747-.317-17.408-7.387q-14.938-6.338-29.875-12.678c7.385-6.624,16.587-14.173,28.13-23.082,6.472,2.5,13.093,4.931,19.5,7.284l.411.151,3.227,1.187c3.963,1.458,8.032,2.834,11.966,4.166,1.962.664,3.987,1.349,5.989,2.041,2.036.7,4.1,1.431,6.1,2.135l.025.009.01,0c4.069,1.434,8.277,2.916,12.45,4.268,8.49,2.749,17.04,5.355,25.069,7.789,4.467,1.353,9.165,2.607,12.94,3.614a2.329,2.329,0,0,1,1.609,1.126,2.3,2.3,0,0,1-.088,1.922c-.988,2.328-2.073,4.66-3.122,6.916-.6,1.3-1.224,2.632-1.822,3.955-.475,1.052-.96,2.143-1.481,3.336h0Zm-69.09,0H76.638c3.4-6.507,9.919-14.2,19.931-23.53,19.331,8.209,38.744,16.449,55.422,23.529ZM555.9,620.548h0l-.635-.113c-1.127-.2-2.275-.4-3.385-.593l-.147-.026c-6.611-1.153-13.446-2.346-20.035-4.042a35.9,35.9,0,0,0-8.378-.831c-1.5-.029-3.042-.059-4.563-.2-1.685-.154-3.4-.332-5.05-.5l-.034,0c-.786-.082-1.677-.175-2.548-.262-1.082-.109-2.18-.229-3.243-.345-2.441-.266-4.964-.541-7.453-.707-2.041-.137-4.121-.2-6.133-.267h-.006c-1.751-.056-3.562-.114-5.343-.218a9.47,9.47,0,0,1-2.178-.486c-.356-.109-.724-.221-1.107-.318.675-3.559,2.736-5.832,4.729-8.031l.016-.017q1.28-1.412,2.558-2.826l.059-.065c2.924-3.233,5.947-6.575,8.98-9.828,1.627-1.745,3.311-3.486,4.94-5.17,2-2.063,4.059-4.2,6.032-6.351a43.551,43.551,0,0,0,2.731-3.419c.688-.923,1.4-1.878,2.156-2.767,4.225-4.967,8.553-9.966,12.738-14.8l1.965-2.271q2.2-2.546,4.4-5.094l.14-.162c6.138-7.1,12.485-14.45,18.791-21.623Zm-324.963-1.937a3.519,3.519,0,0,1-1-.182c-3.4-1.039-6.846-2.048-10.183-3.023-3.558-1.04-7.237-2.116-10.843-3.226-10.407-3.205-19.952-6.218-29.181-9.21-5.417-1.757-10.751-3.681-15.707-5.5l-1.774-.65c-6.3-2.307-12.819-4.693-19.155-7.233l-3.754-1.5-2.073-.831c10-7.551,20.462-15.233,32.119-23.77,1.776.606,3.565,1.206,5.3,1.786,1.161.389,2.605.874,3.973,1.337,2.433.824,4.961,1.687,7.192,2.448,6.922,2.361,14.08,4.8,21.163,7.08,5.85,1.88,11.84,3.664,17.632,5.389l.007,0,.011,0c2.562.763,5.212,1.552,7.814,2.339l8.194,2.479.2.062,3.958,1.2c-.076.239-.148.489-.218.73a14.244,14.244,0,0,1-.536,1.61c-1.29,3.043-2.608,6.133-3.882,9.12-2.519,5.908-5.125,12.018-7.644,18.056C232.1,618.209,231.665,618.612,230.941,618.612Zm238.887-7.6h0c-2.516-.051-5.043-.1-7.487-.148l-.269-.005c-7.507-.146-14.6-.284-21.828-.486a18.51,18.51,0,0,1-2.984-.412,22.547,22.547,0,0,0-2.476-.385l-2.22-.179c-4.241-.344-8.624-.7-12.941-.81-.989-.026-1.985-.03-2.83-.03h-1.585a38.8,38.8,0,0,1-11.363-1.189,13.435,13.435,0,0,0-3.822-.44c-.513,0-1.04.012-1.549.024h-.028c-.508.012-1.033.024-1.554.024a18.53,18.53,0,0,1-2.272-.118c-6.937-.848-13.974-1.8-20.78-2.713-3.159-.426-6.425-.866-9.678-1.3-2.035-.269-4.094-.519-6.086-.762-3.973-.484-8.082-.984-12.1-1.639-6.375-1.041-13.2-2.309-22.127-4.112-13.34-2.7-27.649-5.614-41.9-8.689-4.938-1.065-9.919-2.32-14.736-3.534-2.183-.55-4.44-1.119-6.678-1.666a7.714,7.714,0,0,1-1.175-.367c-1.215-.516-1.361-1.255-.6-3.042l9.411-22.172,1.5-3.534.041-.1c17.419-41.036,35.431-83.47,53.11-125.22.453-1.071.911-1.508,1.58-1.508a3.717,3.717,0,0,1,1.392.377c10.427,4.443,21.018,8.944,31.261,13.3,16.829,7.151,34.231,14.546,51.337,21.869a6.347,6.347,0,0,1,3.09,3.132c18.745,46.378,37.2,92.27,57.649,143.152a11.308,11.308,0,0,1,.478,1.716c.069.307.14.624.227.96Zm8.193-6.545a.962.962,0,0,1-.378-.078c-.516-.219-.992-.9-1.5-2.155l-2.613-6.447c-4.224-10.421-8.593-21.2-12.861-31.837-6.179-15.4-12.448-31.06-18.51-46.207l-.047-.116-.207-.517c-3.991-9.972-8.118-20.283-12.18-30.419-2.622-6.544-5.073-12.6-7.494-18.523l-.031-.075c-.764-1.867-1.148-2.8-.865-3.474.289-.685,1.284-1.087,3.267-1.888,3.708-1.5,7.478-3.018,11.124-4.488l.1-.039c7.723-3.112,15.708-6.331,23.563-9.536,3.68-1.5,7.4-3.074,11.006-4.594l.019-.008.01,0c3.067-1.294,6.239-2.633,9.369-3.922,2.638-1.086,5.32-2.158,7.913-3.193,3.466-1.385,7.05-2.816,10.548-4.291,4.2-1.767,8.418-3.657,12.5-5.485,1.461-.654,2.971-1.329,4.459-1.991a4.036,4.036,0,0,1,1.617-.389,2.566,2.566,0,0,1,2.414,1.842c1.961,4.665,3.893,9.435,5.761,14.048.691,1.707,1.405,3.47,2.115,5.214.061.15.118.307.168.446l0,.012c.045.123.091.25.14.374l1.975,5.061q3.768,9.658,7.537,19.316c.894,2.291,1.8,4.622,2.674,6.877l.018.047.008.021c2.194,5.651,4.464,11.495,6.752,17.219,1.46,3.653,3,7.342,4.484,10.909l0,.011c1.049,2.518,2.135,5.123,3.183,7.692a6.24,6.24,0,0,1,.34,1.558c.031.237.06.456.1.663l-.369.429-.349.405c-.6.7-1.176,1.366-1.735,2.025-1.72,2.03-3.466,4.094-5.16,6.1l-.232.274c-3.83,4.528-7.791,9.211-11.726,13.827l-1.27,1.49C524.935,550.9,515.905,561.5,506.948,571.9c-1.406,1.632-2.911,3.225-4.368,4.765l-.006.006c-1.27,1.343-2.583,2.732-3.824,4.141-4.359,4.954-8.988,10.3-14.566,16.835-.828.969-1.609,2.007-2.363,3.011-.59.784-1.2,1.593-1.827,2.368C479.193,604.01,478.565,604.47,478.02,604.47ZM248.193,579.443a6.292,6.292,0,0,1-1.742-.474l-.023-.008c-.2-.072-.426-.15-.668-.233-4.008-1.373-8.148-2.577-12.151-3.742l-.052-.015c-1.532-.446-3.116-.907-4.67-1.371-1.213-.362-2.449-.719-3.645-1.064-2-.577-4.061-1.172-6.078-1.809-8.612-2.717-17.181-5.461-26.686-8.509-.908-.291-1.825-.577-2.712-.855-2.7-.845-5.5-1.718-8.184-2.755-1.17-.451-2.385-.924-3.61-1.406,24.39-17.869,48.053-35.375,69.429-53.094,24.427-20.249,41.806-37.515,53.13-52.783,2.187-2.949,4.355-5.894,6.628-9.005-15.841,37.262-31.926,75.156-47.48,111.8l-.076.18-9.64,22.712C249.209,578.781,248.928,579.443,248.193,579.443ZM555.9,494.416c-.474-1.163-.937-2.312-1.375-3.414-1.193-3-2.308-6.088-3.386-9.075-1.191-3.3-2.422-6.708-3.761-10.008-1.479-3.648-3.106-7.3-4.679-10.839-1.349-3.031-2.743-6.166-4.039-9.281-1.25-3.008-2.423-6.107-3.557-9.1-.95-2.51-1.93-5.1-2.952-7.63-.978-2.419-2.031-4.855-3.05-7.21-1.174-2.714-2.386-5.517-3.493-8.317-.851-2.156-1.618-4.385-2.359-6.54l0-.005c-.816-2.371-1.66-4.824-2.617-7.183-1.092-2.691-2.329-5.373-3.525-7.967-.9-1.951-1.83-3.968-2.694-5.978a15.179,15.179,0,0,1-.813-2.964c-.094-.463-.19-.937-.3-1.394l.281-.151.012-.006.343-.184,2.227.945L555.9,404.981v89.435ZM416.7,455.267a6.189,6.189,0,0,1-2.067-.347c-1.591-.583-3.128-1.262-4.614-1.92l-.019-.008c-1.762-.777-3.583-1.581-5.433-2.2-.254-.087-.481-.173-.692-.263a7.955,7.955,0,0,1-3.052-2.237,11.187,11.187,0,0,1-1.85-3.3c-1.155-3.044-2.319-6.144-3.444-9.142l0-.008-.01-.026c-1.934-5.153-3.934-10.481-5.958-15.7-1.405-3.62-2.9-7.273-4.342-10.806l-.007-.017c-1.115-2.727-2.268-5.548-3.372-8.333-2.664-6.717-5.338-13.562-7.924-20.181l-.014-.036q-1.215-3.111-2.431-6.221c-.488-1.245-.581-1.9-.343-2.427s.8-.912,2.092-1.434c1.564-.634,3.186-1.283,4.616-1.856l.036-.014c2.443-.979,4.969-1.991,7.442-3.011,5.231-2.153,10.548-4.352,15.689-6.478l.117-.048.01,0c6.445-2.665,13.11-5.421,19.671-8.115,5.666-2.327,11.608-4.719,17.662-7.109,8.067-3.185,16.286-6.378,24.235-9.467l.013-.005.345-.134c2.208-.858,4.458-1.718,6.633-2.55l.007,0c3.914-1.5,7.962-3.045,11.917-4.633,1.294-.52,2.558-1.165,3.782-1.79,1.168-.6,2.375-1.211,3.6-1.717,6.767-2.785,13.672-5.557,20.35-8.237l.029-.012q2.853-1.145,5.7-2.292a.15.15,0,0,1,.057-.01,1.055,1.055,0,0,1,.269.066c.116.037.27.085.479.138l-1,2.361q-2.2,5.183-4.4,10.365l-.132.31-.012.029c-4.342,10.218-8.832,20.783-13.215,31.19-.826,1.963-1.531,4.013-2.213,6l-.007.021c-.211.614-.43,1.249-.648,1.871a2.046,2.046,0,0,0-.089,1.276q.788,1.912,1.574,3.825c2.152,5.238,4.376,10.651,6.689,15.921.911,2.074,1.94,4.137,2.935,6.132,1.075,2.157,2.187,4.387,3.153,6.635,1.482,3.45,2.8,7.038,4.071,10.508.359.978.766,2.087,1.162,3.152,1.116,3,1.026,3.2-1.926,4.4-2.686,1.084-5.48,2.216-7.946,3.215l-.053.021c-5.793,2.347-11.784,4.774-17.692,7.121-2.966,1.178-5.985,2.335-8.9,3.453l-.01,0c-4.116,1.577-8.372,3.207-12.515,4.912-3.656,1.5-7.335,3.121-10.892,4.685l-.011,0c-3.651,1.605-7.427,3.265-11.179,4.8-8.706,3.569-17.5,6.9-24.192,9.4A5.007,5.007,0,0,1,416.7,455.267Zm-27.748-11.179h0l-2.905-1.233c-5.064-2.15-10.209-4.34-14.748-6.272l-.081-.034c-13.033-5.547-26.51-11.284-39.806-16.828l-.012-.005-.116-.049a17.781,17.781,0,0,1-5.472-3.521c11.091-15.954,21.645-31.892,32.265-48.726,1.908,4.735,3.934,9.723,6.022,14.824,2.078,5.075,4.224,10.22,6.3,15.2l.005.013c2.29,5.491,4.659,11.169,6.944,16.771,1.338,3.284,2.621,6.654,3.861,9.912l0,.012c1.008,2.648,2.051,5.387,3.117,8.064.659,1.652,1.408,3.3,2.134,4.895.538,1.182,1.094,2.4,1.609,3.619a11.252,11.252,0,0,1,.536,1.9c.1.424.2.9.346,1.459ZM555.9,395.324c-15.7-6.647-29.481-12.454-42.134-17.752l-.1-.042a15.815,15.815,0,0,1-8.573-8.355,9.861,9.861,0,0,1-1.134-5.359,9.684,9.684,0,0,1,2.1-4.916,7.482,7.482,0,0,0,.849-1.641l.005-.013c.045-.107.09-.214.135-.32,1.681-3.944,3.384-7.957,5.031-11.839l.026-.061,1.71-4.029,2.093-4.932c.656.217,1.32.42,2.022.635a47.606,47.606,0,0,1,4.667,1.609c10.284,4.355,21.177,8.97,33.3,14.11v42.906ZM367.195,363.5h0c-.679-1.454-1.345-2.837-1.989-4.175q-.456-.947-.9-1.865c3.536-5.694,6.747-10.932,9.853-16,7.07-11.53,13.174-21.486,18.881-29.861a145.011,145.011,0,0,1,17.02-21.227c10.8-10.8,21.638-20.736,32.223-29.545a354.831,354.831,0,0,1,30.9-23.1c13.391,5.637,26.964,11.412,40.091,17,5.107,2.173,10.9,4.636,16.5,7.014.3.129.616.257.918.381l.024.01a22.61,22.61,0,0,1,3.4,1.619,2.184,2.184,0,0,1,.451,2.042c-1.649,3.826-3.364,7.7-5.022,11.446l-.008.017c-1.66,3.751-3.377,7.629-5.029,11.463-1.417,3.287-2.656,6.713-3.854,10.027l-.1.289a5.677,5.677,0,0,1-3.433,3.47c-1.977.838-3.954,1.756-5.866,2.644-2.23,1.036-4.536,2.108-6.852,3.055-2.135.874-4.355,1.642-6.5,2.384l-.012,0c-1.808.625-3.677,1.271-5.487,1.979a28.773,28.773,0,0,0-3.059,1.479,28.562,28.562,0,0,1-3.089,1.491c-3.175,1.224-6.423,2.417-9.564,3.57l-.01,0c-3.194,1.173-6.5,2.386-9.724,3.632-4.846,1.872-9.743,3.856-14.479,5.775l-.008,0c-1.519.616-3.241,1.313-4.889,1.978-25.539,10.3-51.948,20.955-78.19,31.571a6.757,6.757,0,0,0-1.425.886c-.24.177-.488.36-.758.54ZM555.9,348.065h0v0c-9.4-3.989-21.746-9.231-33.911-14.4a16.964,16.964,0,0,1-2.374-1.181c-1.25-.779-1.513-1.726-.88-3.168,2.7-6.151,5.568-12.716,8.228-19.407,1.409-3.545,4.247-5.033,7.1-6.113,1.531-.578,3.07-1.209,4.557-1.82l.031-.013c.639-.262,1.3-.533,1.951-.8.373-.151.761-.315,1.1-.459.712-.3,1.446-.61,2.184-.873,1.462-.521,2.949-1.034,4.388-1.53,2.444-.843,4.97-1.715,7.436-2.645l.169-.064.016-.006Zm-23.543-52.956v0c.1-.433.168-.8.229-1.117a7.607,7.607,0,0,1,.361-1.426c1.031-2.545,2.1-5.2,3.042-7.547L536,285c2.77-6.889,5.635-14.013,8.595-20.96,3.566-8.37,7.371-17.109,11.309-25.975v47.823l-1.7.733-.061.026-.021.009c-2.775,1.2-5.645,2.438-8.5,3.578s-5.768,2.182-8.85,3.283l-.02.007c-1.413.5-2.875,1.027-4.391,1.581Zm3.743-35.237a4.441,4.441,0,0,1-1.658-.448l-.014-.006-.03-.013c-14.727-6.316-29.693-12.663-44.166-18.8q-6.332-2.685-12.662-5.372l-.154-.066-.011,0-.166-.071c7.129-4.553,14.312-8.7,21.35-12.321a221.317,221.317,0,0,1,20.717-9.382c10.034,4.252,19.951,8.45,29.475,12.478,1.037.439,1.54.819,1.736,1.312a2.722,2.722,0,0,1-.319,2.066c-4.184,9.571-8.3,19.262-12.222,28.8C537.438,259.36,536.912,259.871,536.1,259.871Zm18.663-42.315a14.18,14.18,0,0,1-5.5-1.182c-5.411-2.277-11.133-4.689-17.492-7.373a172.187,172.187,0,0,1,24.127-5.723V217.5C555.525,217.539,555.143,217.557,554.766,217.557Z" transform="translate(535.096 718)" fill="#eceef3" stroke="rgba(0,0,0,0)" stroke-width="1" opacity="0.7"/>
    <g id="room_black_24dp" transform="translate(860 949)" opacity="0.7">
      <path id="Pfad_28736" data-name="Pfad 28736" d="M0,0H160V160H0Z" fill="none"/>
      <path id="Differenzmenge_9" data-name="Differenzmenge 9" d="M46.93,133.545h0c-.03-.033-3.005-3.323-7.333-8.633-4.014-4.926-10.071-12.676-16.132-21.623a191.02,191.02,0,0,1-16.132-28.2A97.958,97.958,0,0,1,2.017,60.535,53.658,53.658,0,0,1,0,46.741a47.017,47.017,0,0,1,.952-9.428A46.377,46.377,0,0,1,8.008,20.6,46.871,46.871,0,0,1,37.465.949,47.706,47.706,0,0,1,56.4.949,46.658,46.658,0,0,1,93.86,46.741a53.658,53.658,0,0,1-2.017,13.795,97.957,97.957,0,0,1-5.316,14.558,191.02,191.02,0,0,1-16.132,28.2c-3.345,4.938-8.86,12.7-16.132,21.623-4.327,5.31-7.3,8.6-7.332,8.633ZM29.572,24.627a4.974,4.974,0,0,0-4.959,4.96V64.3a4.974,4.974,0,0,0,4.959,4.959H64.288A4.974,4.974,0,0,0,69.248,64.3V29.587a4.974,4.974,0,0,0-4.959-4.96Zm12.4,37.2H34.532a2.482,2.482,0,0,1-2.48-2.48V51.9a2.482,2.482,0,0,1,2.48-2.48h7.439a2.482,2.482,0,0,1,2.48,2.48v7.439A2.482,2.482,0,0,1,41.971,61.823ZM34.532,51.9v7.439h7.439V51.9Zm24.8,6.2H51.89a2.48,2.48,0,0,1,0-4.96h7.439a2.48,2.48,0,1,1,0,4.96ZM41.971,44.465H34.532a2.483,2.483,0,0,1-2.48-2.48V34.546a2.482,2.482,0,0,1,2.48-2.48h7.439a2.482,2.482,0,0,1,2.48,2.48v7.439A2.483,2.483,0,0,1,41.971,44.465Zm-7.439-9.919v7.439h7.439V34.546Zm24.8,6.2H51.89a2.48,2.48,0,1,1,0-4.959h7.439a2.48,2.48,0,1,1,0,4.959Z" transform="translate(33.07 11.383)" fill="#adbccd"/>
    </g>
  </g>
</svg>
